Division,WeightClassKg,Place,Name,Team,BodyweightKg,Best3SquatKg,Best3BenchKg,Best3DeadliftKg,TotalKg,Equipment,Event,Sex,BirthDate
Boys,51.71,1,Trey Shirey,Prosper,50.26,131.54,79.38,136.08,347,Single-ply,SBD,M,
Boys,51.71,2,Jose Cuellar #2,Celina,51.44,120.2,81.65,127.01,328.85,Single-ply,SBD,M,
Boys,51.71,3,Hank Hamilton,Callisburg,51.17,108.86,63.5,120.2,292.57,Single-ply,SBD,M,
Boys,51.71,4,Jesse James Cruz,Gainesville,46.36,92.99,52.16,102.06,247.21,Single-ply,SBD,M,
Boys,51.71,5,Eric Melendez,Carrollton Turner,49.9,77.11,45.36,97.52,219.99,Single-ply,SBD,M,
Boys,51.71,6,Kyle Barr,Little Elm,47.17,77.11,47.63,92.99,217.72,Single-ply,SBD,M,
Boys,51.71,7,Brian Usrey,Bells,45,70.31,47.63,88.45,206.38,Single-ply,SBD,M,
Boys,51.71,DQ,Colbin Jones,Detroit,49.71,,,,,Single-ply,SBD,M,
Boys,51.71,DQ,Gage Dyer,Valley View,51.62,113.4,,,,Single-ply,SBD,M,
Boys,55.79,1,Destin Warr,Callisburg,55.16,151.95,102.06,172.37,426.38,Single-ply,SBD,M,
Boys,55.79,2,Carter Bakewell,Prosper,54.98,145.15,86.18,149.69,381.02,Single-ply,SBD,M,
Boys,55.79,3,Peyton Hulett,Prosper,54.98,158.76,77.11,142.88,378.75,Single-ply,SBD,M,
Boys,55.79,4,Braulio Rodriguez,Nevada Community,52.71,136.08,83.91,156.49,376.48,Single-ply,SBD,M,
Boys,55.79,5,Raphel Chavez,Gainesville,54.61,140.61,92.99,142.88,376.48,Single-ply,SBD,M,
Boys,55.79,6,Andy Mejia,Carrollton Turner,54.52,129.27,74.84,131.54,335.66,Single-ply,SBD,M,
Boys,55.79,7,Jordan Barlagne,Leonard,53.61,115.67,68.04,136.08,319.78,Single-ply,SBD,M,
Boys,55.79,8,Nick Michka,Celeste,55.79,111.13,77.11,120.2,308.44,Single-ply,SBD,M,
Boys,55.79,9,Nick Mills,Henrietta,53.71,104.33,65.77,124.74,294.84,Single-ply,SBD,M,
Boys,55.79,10,Michael Read,Celina,55.34,102.06,45.36,102.06,249.48,Single-ply,SBD,M,
Boys,55.79,11,Aiden Galaviz,Valley View,52.44,81.65,47.63,92.99,222.26,Single-ply,SBD,M,
Boys,55.79,DQ,Dilin Exum,Detroit,51.89,124.74,,,,Single-ply,SBD,M,
Boys,59.87,1,Payton Cole,Bells,58.97,183.7,111.13,167.83,462.66,Single-ply,SBD,M,
Boys,59.87,2,Alexis Huerta,Gainesville,56.15,170.1,88.45,158.76,417.3,Single-ply,SBD,M,
Boys,59.87,3,Michael Williams,Henrietta,59.42,122.47,81.65,140.61,344.73,Single-ply,SBD,M,
Boys,59.87,4,Nathan Kolstad,Nevada Community,59.24,131.54,56.7,133.81,322.05,Single-ply,SBD,M,
Boys,59.87,5,Romario Melendez,Carrollton Turner,57.61,104.33,72.57,122.47,299.37,Single-ply,SBD,M,
Boys,59.87,6,Karsen Murphy,Henrietta,58.42,83.91,56.7,142.88,283.5,Single-ply,SBD,M,
Boys,59.87,DQ,Devin Weaver,Bells,55.97,81.65,,,,Single-ply,SBD,M,
Boys,67.13,1,Alex Sustita,Gainesville,66.41,208.65,104.33,197.31,510.29,Single-ply,SBD,M,
Boys,67.13,2,Cloedus Scales,Detroit,67.13,190.51,113.4,176.9,480.81,Single-ply,SBD,M,
Boys,67.13,3,Alan Santana,Little Elm,65.5,174.63,102.06,192.78,469.47,Single-ply,SBD,M,
Boys,67.13,4,Chase Hodges,Celina,67.13,158.76,113.4,145.15,417.3,Single-ply,SBD,M,
Boys,67.13,5,Suede Wanamaker,Callisburg,65.41,158.76,90.72,165.56,415.04,Single-ply,SBD,M,
Boys,67.13,6,Evan Rogers,Celina,65.86,142.88,102.06,151.95,396.89,Single-ply,SBD,M,
Boys,67.13,7,Mason Underwood,Leonard,66.13,131.54,97.52,158.76,387.82,Single-ply,SBD,M,
Boys,67.13,8,Mario Gonzales,Whitewright,63.96,142.88,81.65,147.42,371.95,Single-ply,SBD,M,
Boys,67.13,9,Wyatt Exner,Valley View,62.96,145.15,65.77,151.95,362.87,Single-ply,SBD,M,
Boys,67.13,10,Chase Waller,Tioga,67.13,124.74,81.65,145.15,351.53,Single-ply,SBD,M,
Boys,67.13,11,Gabe Dorman,Nevada Community,61.51,142.88,65.77,127.01,335.66,Single-ply,SBD,M,
Boys,67.13,12,Jason Mullins,Detroit,62.14,117.93,99.79,117.93,335.66,Single-ply,SBD,M,
Boys,67.13,13,Blake Jones,Pottsboro,63.41,113.4,86.18,136.08,335.66,Single-ply,SBD,M,
Boys,67.13,14,Jackson Pedigo,Bells,64.77,83.91,52.16,88.45,224.53,Single-ply,SBD,M,
Boys,67.13,DQ,Javier Fraire,Gainesville,60.51,183.7,,,,Single-ply,SBD,M,
Boys,67.13,DQ,Kaelan McGuigan,Little Elm,65.23,97.52,,,,Single-ply,SBD,M,
Boys,67.13,DQ,Eric Sikes,Henrietta,63.68,104.33,,,,Single-ply,SBD,M,
Boys,67.13,DQ,Daniel Hernandez #15,Sadler S & S Consolidated,65.91,124.74,,,,Single-ply,SBD,M,
Boys,67.13,DQ,Trevor Martin,Pilot Point,62.6,156.49,88.45,,,Single-ply,SBD,M,
Boys,74.84,1,Lane Kendrick,Bells,73.39,219.99,131.54,215.46,566.99,Single-ply,SBD,M,
Boys,74.84,2,Tanner Meeks,Celeste,74.21,210.92,133.81,206.38,551.11,Single-ply,SBD,M,
Boys,74.84,3,Jeffrey Boyd,Bells,67.59,208.65,124.74,208.65,542.04,Single-ply,SBD,M,
Boys,74.84,4,Claude Scales,Detroit,74.57,208.65,117.93,204.12,530.7,Single-ply,SBD,M,
Boys,74.84,5,Clayton Moore,Callisburg,71.58,176.9,92.99,195.04,464.93,Single-ply,SBD,M,
Boys,74.84,6,Blaine Farmer,Detroit,72.48,172.37,83.91,201.85,458.13,Single-ply,SBD,M,
Boys,74.84,7,Cale Martin,Pilot Point,72.48,161.03,111.13,179.17,451.32,Single-ply,SBD,M,
Boys,74.84,8,Mason Rogers,Leonard,70.4,158.76,81.65,192.78,433.18,Single-ply,SBD,M,
Boys,74.84,9,Besnik Hysenaj,Little Elm,72.57,142.88,113.4,174.63,430.91,Single-ply,SBD,M,
Boys,74.84,10,Kristian McGuigan,Little Elm,72.76,156.49,106.59,161.03,424.11,Single-ply,SBD,M,
Boys,74.84,11,Azik Willis,Collinsville,74.03,147.42,92.99,172.37,412.77,Single-ply,SBD,M,
Boys,74.84,12,Blaze Deaton,Henrietta,74.57,133.81,88.45,188.24,410.5,Single-ply,SBD,M,
Boys,74.84,13,Truett Holloway,Whitewright,72.39,151.95,102.06,151.95,405.97,Single-ply,SBD,M,
Boys,74.84,14,Justin Petty,Sadler S & S Consolidated,74.03,147.42,83.91,158.76,390.09,Single-ply,SBD,M,
Boys,74.84,15,Cooper Evans,Tioga,72.39,156.49,74.84,154.22,385.55,Single-ply,SBD,M,
Boys,74.84,16,Ryan Reemts,Celina,74.12,142.88,90.72,136.08,369.68,Single-ply,SBD,M,
Boys,74.84,17,Cody McMillion,Henrietta,74.66,106.59,74.84,183.7,365.14,Single-ply,SBD,M,
Boys,74.84,18,Kolton Morris,Henrietta,68.22,99.79,61.23,154.22,315.25,Single-ply,SBD,M,
Boys,74.84,19,Jace Jennings,Henrietta,71.03,97.52,65.77,149.69,312.98,Single-ply,SBD,M,
Boys,74.84,20,Austin Lyons,Henrietta,70.94,124.74,61.23,120.2,306.17,Single-ply,SBD,M,
Boys,74.84,21,Braden Miles,Valley View,71.12,79.38,61.23,156.49,297.1,Single-ply,SBD,M,
Boys,74.84,22,Danyel Usrey,Bells,71.12,83.91,74.84,111.13,269.89,Single-ply,SBD,M,
Boys,74.84,DQ,Elijah Beck,Bells,70.31,156.49,,,,Single-ply,SBD,M,
Boys,74.84,DQ,Carlos Orozco,Carrollton Turner,71.76,163.29,,,,Single-ply,SBD,M,
Boys,74.84,DQ,William Torres,Carrollton Turner,70.22,170.1,92.99,,,Single-ply,SBD,M,
Boys,74.84,DQ,Levi Harlow,Detroit,68.76,102.06,,,,Single-ply,SBD,M,
Boys,74.84,DQ,Isaac Arriaga,Little Elm,73.48,,,,,Single-ply,SBD,M,
Boys,74.84,DQ,Marco DeTomas,Prosper,73.57,231.33,,,,Single-ply,SBD,M,
Boys,74.84,DQ,Alex Conley,Pottsboro,73.39,113.4,,,,Single-ply,SBD,M,
Boys,82.1,1,Greyson Blanchard,Celina,79.83,340.19,142.88,240.4,723.48,Single-ply,SBD,M,
Boys,82.1,2,John Wheeler,Leonard,80.2,188.24,131.54,190.51,510.29,Single-ply,SBD,M,
Boys,82.1,3,Zion Richardson,Sadler S & S Consolidated,80.01,210.92,111.13,183.7,505.76,Single-ply,SBD,M,
Boys,82.1,4,Dalton Doyle,Leonard,79.02,181.44,120.2,190.51,492.15,Single-ply,SBD,M,
Boys,82.1,5,Harrison Dempsey,Gainesville,78.56,197.31,102.06,188.24,487.61,Single-ply,SBD,M,
Boys,82.1,6,Lam Tran,Carrollton Turner,81.92,170.1,120.2,183.7,474,Single-ply,SBD,M,
Boys,82.1,7,Wiley Head,Callisburg,75.02,151.95,97.52,185.97,435.45,Single-ply,SBD,M,
Boys,82.1,8,Tucker Crutchfield,Detroit,79.02,140.61,97.52,158.76,396.89,Single-ply,SBD,M,
Boys,82.1,9,Edgar Castilla,Carrollton Turner,78.74,142.88,90.72,149.69,383.29,Single-ply,SBD,M,
Boys,82.1,10,Jesus Molina,Tioga,79.29,138.35,77.11,156.49,371.95,Single-ply,SBD,M,
Boys,82.1,11,Cole Cassaday,Henrietta,77.29,147.42,79.38,136.08,362.87,Single-ply,SBD,M,
Boys,82.1,12,Cash Cawthon,Valley View,81.37,136.08,61.23,151.95,349.27,Single-ply,SBD,M,
Boys,82.1,DQ,Junior Money,Nevada Community,78.56,174.63,,,,Single-ply,SBD,M,
Boys,82.1,DQ,Rolando Sanchez,Carrollton Turner,76.02,158.76,,,,Single-ply,SBD,M,
Boys,82.1,DQ,Hugo Mesner,Celina,78.11,147.42,,,,Single-ply,SBD,M,
Boys,82.1,DQ,Cooper Hess,Celina,76.57,183.7,102.06,,,Single-ply,SBD,M,
Boys,82.1,DQ,Charles Turner,Howe,80.56,,,,,Single-ply,SBD,M,
Boys,82.1,DQ,Ryan Martin #9,Little Elm,75.48,147.42,83.91,185.97,,Single-ply,SBD,M,
Boys,89.81,1,Yovanni Juarez,Gainesville,88.27,340.19,238.14,249.48,827.81,Single-ply,SBD,M,
Boys,89.81,2,Ricky Matehuala,Celina,86.09,292.57,183.7,226.8,703.07,Single-ply,SBD,M,
Boys,89.81,3,Marcellus Toombs,Prosper,82.46,201.85,158.76,204.12,564.72,Single-ply,SBD,M,
Boys,89.81,4,Kyron Smith,Gainesville,88.54,217.72,129.27,204.12,551.11,Single-ply,SBD,M,
Boys,89.81,5,Angel Cruz,Whitewright,88.72,201.85,140.61,208.65,551.11,Single-ply,SBD,M,
Boys,89.81,6,Jacory Bush,Leonard,88.27,210.92,133.81,195.04,539.77,Single-ply,SBD,M,
Boys,89.81,7,Eric Starks,Nevada Community,84.91,183.7,136.08,210.92,530.7,Single-ply,SBD,M,
Boys,89.81,8,Colin Freeman,Prosper,83.19,183.7,115.67,226.8,526.17,Single-ply,SBD,M,
Boys,89.81,9,Kasey Sanders #1,Whitewright,84.64,204.12,133.81,174.63,512.56,Single-ply,SBD,M,
Boys,89.81,10,Bryce Johnson #6,Collinsville,88.09,190.51,106.59,201.85,498.95,Single-ply,SBD,M,
Boys,89.81,11,Jacob Fletcher,Henrietta,83.46,142.88,102.06,226.8,471.74,Single-ply,SBD,M,
Boys,89.81,12,Maliek Harris,Leonard,87.91,181.44,92.99,190.51,464.93,Single-ply,SBD,M,
Boys,89.81,13,Chris Hill,Prosper,85.91,165.56,113.4,174.63,453.59,Single-ply,SBD,M,
Boys,89.81,14,Efren Hernandez,Sadler S & S Consolidated,89.09,183.7,102.06,167.83,453.59,Single-ply,SBD,M,
Boys,89.81,15,Tristan Nichols,Celeste,88.54,165.56,99.79,149.69,415.04,Single-ply,SBD,M,
Boys,89.81,16,Chandler Holman,Leonard,82.19,158.76,95.25,156.49,410.5,Single-ply,SBD,M,
Boys,89.81,17,Creighton Gattis,Pottsboro,89.27,142.88,83.91,165.56,392.36,Single-ply,SBD,M,
Boys,89.81,18,Reese Futch,Whitewright,87.54,149.69,74.84,154.22,378.75,Single-ply,SBD,M,
Boys,89.81,19,Angel Jimenez #1,Blue Ridge,86,140.61,70.31,140.61,351.53,Single-ply,SBD,M,
Boys,89.81,20,Roman Garbrandt,Howe,88.99,90.72,72.57,131.54,294.84,Single-ply,SBD,M,
Boys,89.81,DQ,Osa Adonri,Little Elm,88.18,226.8,,,,Single-ply,SBD,M,
Boys,89.81,DQ,Alex Giron,Pilot Point,84.82,165.56,,,,Single-ply,SBD,M,
Boys,89.81,DQ,Wyatt Noack,Celeste,89.36,170.1,102.06,197.31,,Single-ply,SBD,M,
Boys,99.79,1,Shane Davis,Whitewright,98.97,281.23,192.78,249.48,723.48,Single-ply,SBD,M,
Boys,99.79,2,William Pace,Celina,94.89,278.96,165.56,256.28,700.8,Single-ply,SBD,M,
Boys,99.79,3,Bradley Parsons,Detroit,97.61,242.67,151.95,215.46,610.08,Single-ply,SBD,M,
Boys,99.79,4,Steven Zamora,Gainesville,97.07,240.4,158.76,190.51,589.67,Single-ply,SBD,M,
Boys,99.79,5,Jacob Weir,Callisburg,99.34,226.8,138.35,201.85,566.99,Single-ply,SBD,M,
Boys,99.79,6,Dalton Stanley,Tioga,97.89,210.92,158.76,172.37,542.04,Single-ply,SBD,M,
Boys,99.79,7,Ryan Rodriguez,Blue Ridge,92.71,210.92,142.88,185.97,539.77,Single-ply,SBD,M,
Boys,99.79,8,Braylin Garcia,Leonard,93.53,213.19,147.42,172.37,532.97,Single-ply,SBD,M,
Boys,99.79,9,Peyton Barthold,Valley View,93.98,204.12,95.25,222.26,521.63,Single-ply,SBD,M,
Boys,99.79,10,Sergio Munoz,Gainesville,97.43,190.51,124.74,204.12,519.36,Single-ply,SBD,M,
Boys,99.79,11,Elmer Cadena,Nevada Community,96.62,188.24,127.01,185.97,501.22,Single-ply,SBD,M,
Boys,99.79,12,Cj Hubbard,Celina,93.26,185.97,129.27,183.7,498.95,Single-ply,SBD,M,
Boys,99.79,13,Brian Ipina,Carrollton Turner,95.16,185.97,113.4,192.78,492.15,Single-ply,SBD,M,
Boys,99.79,14,Jason Boyd,Bells,99.79,185.97,115.67,174.63,476.27,Single-ply,SBD,M,
Boys,99.79,15,Shelton Burden,Bells,91.35,161.03,88.45,204.12,453.59,Single-ply,SBD,M,
Boys,99.79,16,Aiden Giles,Celeste,97.43,156.49,124.74,170.1,451.32,Single-ply,SBD,M,
Boys,99.79,17,Jayden Shelby,Detroit,90.26,165.56,95.25,183.7,444.52,Single-ply,SBD,M,
Boys,99.79,18,Zeke Dick,Sadler S & S Consolidated,95.98,158.76,115.67,158.76,433.18,Single-ply,SBD,M,
Boys,99.79,19,John Trevino,Collinsville,92.44,158.76,108.86,161.03,428.64,Single-ply,SBD,M,
Boys,99.79,20,Rowdy Jeffreys,Callisburg,93.17,154.22,102.06,161.03,417.3,Single-ply,SBD,M,
Boys,99.79,21,Ty Deaton,Henrietta,91.72,165.56,92.99,142.88,401.43,Single-ply,SBD,M,
Boys,99.79,22,Charles Vera,Howe,93.8,172.37,95.25,131.54,399.16,Single-ply,SBD,M,
Boys,99.79,23,Joseph Sides,Little Elm,99.61,147.42,92.99,158.76,399.16,Single-ply,SBD,M,
Boys,99.79,24,Aidan Cornett,Pottsboro,92.71,117.93,54.43,102.06,274.42,Single-ply,SBD,M,
Boys,99.79,DQ,Luke Johnson,Prosper,97.7,219.99,,,,Single-ply,SBD,M,
Boys,99.79,DQ,Manuel Molina,Tioga,96.52,138.35,,,,Single-ply,SBD,M,
Boys,99.79,DQ,Zachery Reese,Howe,91.9,145.15,,,,Single-ply,SBD,M,
Boys,109.77,1,Brayden Harris,Leonard,108.86,272.16,158.76,226.8,657.71,Single-ply,SBD,M,
Boys,109.77,2,Marc Anthony Gonzales,Whitewright,108.14,235.87,145.15,254.01,635.03,Single-ply,SBD,M,
Boys,109.77,3,Joel Portillo,Carrollton Turner,106.78,254.01,138.35,235.87,628.23,Single-ply,SBD,M,
Boys,109.77,4,Jackson Younger,Nevada Community,105.69,222.26,165.56,226.8,614.62,Single-ply,SBD,M,
Boys,109.77,5,Jakob Reed,Henrietta,102.06,197.31,138.35,206.38,542.04,Single-ply,SBD,M,
Boys,109.77,6,Nick Garza,Little Elm,103.42,188.24,129.27,183.7,501.22,Single-ply,SBD,M,
Boys,109.77,7,Quinton Cox,Pilot Point,102.97,199.58,106.59,188.24,494.42,Single-ply,SBD,M,
Boys,109.77,8,Dario Cervantes,Valley View,101.51,190.51,95.25,204.12,489.88,Single-ply,SBD,M,
Boys,109.77,9,Julian Olivares,Celeste,104.05,183.7,133.81,170.1,487.61,Single-ply,SBD,M,
Boys,109.77,10,Esteban Hernandez,Collinsville,104.05,170.1,133.81,181.44,485.34,Single-ply,SBD,M,
Boys,109.77,11,Josh Marquez,Carrollton Turner,100.52,174.63,113.4,174.63,462.66,Single-ply,SBD,M,
Boys,109.77,12,Xavier Raines,Pilot Point,106.41,154.22,102.06,145.15,401.43,Single-ply,SBD,M,
Boys,109.77,13,Malon Walker,Howe,104.05,147.42,83.91,129.27,360.61,Single-ply,SBD,M,
Boys,109.77,DQ,Matthew Racovei,Little Elm,108.5,183.7,,,,Single-ply,SBD,M,
Boys,109.77,DQ,Cameron Bork,Little Elm,108.68,208.65,,,,Single-ply,SBD,M,
Boys,109.77,DQ,Easton Jones,Bells,106.14,151.95,,,,Single-ply,SBD,M,
Boys,109.77,DQ,Wyatt Isbell,Valley View,102.78,199.58,,,,Single-ply,SBD,M,
Boys,124.74,1,Colin Beesley,Prosper,123.01,272.16,154.22,233.6,659.98,Single-ply,SBD,M,
Boys,124.74,2,Nash Gagliano,Prosper,123.83,254.01,183.7,215.46,653.17,Single-ply,SBD,M,
Boys,124.74,3,Josh Queneau,Nevada Community,112.4,272.16,172.37,197.31,641.83,Single-ply,SBD,M,
Boys,124.74,4,Stevie Hopper,Nevada Community,113.04,247.21,147.42,251.74,646.37,Single-ply,SBD,M,
Boys,124.74,5,Jose Robles,Gainesville,122.47,226.8,142.88,215.46,585.13,Single-ply,SBD,M,
Boys,124.74,6,Zach Barnhouse,Prosper,113.94,199.58,170.1,204.12,573.79,Single-ply,SBD,M,
Boys,124.74,7,KeAaron Jackson,Detroit,120.66,190.51,113.4,197.31,501.22,Single-ply,SBD,M,
Boys,124.74,8,Connor Carty,Prosper,116.39,188.24,115.67,181.44,485.34,Single-ply,SBD,M,
Boys,124.74,9,Jack Scott,Nevada Community,112.4,174.63,124.74,165.56,464.93,Single-ply,SBD,M,
Boys,124.74,10,Logan Cahill,Prosper,109.86,156.49,113.4,156.49,426.38,Single-ply,SBD,M,
Boys,124.74,11,Michael Ipina,Carrollton Turner,110.77,131.54,81.65,131.54,344.73,Single-ply,SBD,M,
Boys,124.74,DQ,Carlos Martinez #31,Carrollton Turner,116.39,190.51,83.91,,,Single-ply,SBD,M,
Boys,139.71,1,Michael Reemts,Celina,130.18,344.73,149.69,276.69,771.11,Single-ply,SBD,M,
Boys,139.71,2,William Fleming,Howe,130.09,249.48,117.93,206.38,573.79,Single-ply,SBD,M,
Boys,139.71,3,Diesel Wanamaker,Callisburg,127.82,195.04,102.06,204.12,501.22,Single-ply,SBD,M,
Boys,139.71,4,Cash Ottwell,Celeste,131.36,172.37,138.35,183.7,494.42,Single-ply,SBD,M,
Boys,139.71,DQ,Kellen Rollins,Blue Ridge,133.54,254.01,,,,Single-ply,SBD,M,
Boys,139.71+,1,Jerry Elmore,Gainesville,150.32,249.48,183.7,183.7,616.89,Single-ply,SBD,M,
Boys,139.71+,2,Logan Ireland,Nevada Community,146.96,213.19,124.74,199.58,537.51,Single-ply,SBD,M,
Boys,139.71+,3,Carson Culp,Pottsboro,153.22,181.44,113.4,158.76,453.59,Single-ply,SBD,M,
Boys,139.71+,4,Manny Segundo,Pilot Point,156.67,145.15,95.25,192.78,433.18,Single-ply,SBD,M,
Boys,139.71+,5,Braxton Armstrong,Leonard,149.59,181.44,99.79,149.69,430.91,Single-ply,SBD,M,
Boys,139.71+,DQ,Ronan Colburn,Pilot Point,141.79,102.06,,,,Single-ply,SBD,M,
