Place,Name,BirthDate,Sex,State,Division,Equipment,BodyweightKg,WeightClassKg,Squat1Kg,Squat2Kg,Squat3Kg,Best3SquatKg,Bench1Kg,Bench2Kg,Bench3Kg,Best3BenchKg,Deadlift1Kg,Deadlift2Kg,Deadlift3Kg,Best3DeadliftKg,TotalKg,Event
1,Isabel Rapier,,F,BC,Sub-Juniors,Raw,62.74,63,-62.5,62.5,65,65,40,42.5,-47.5,42.5,70,77.5,-82.5,77.5,185,SBD
1,Georgia M Kulbida,,F,BC,Sub-Juniors,Raw,68.05,69,100,105,110,110,62.5,70,75,75,105,112.5,120,120,305,SBD
1,Isabelle Louie,2000-11-20,F,BC,Juniors,Raw,56.1,57,97.5,105,112.5,112.5,45,50,52.5,52.5,117.5,122.5,127.5,127.5,292.5,SBD
1,Laurel Gollnick,,F,BC,Juniors,Raw,61.95,63,120,130,-140,130,55,62.5,67.5,67.5,135,145,155,155,352.5,SBD
1,Kiana Delsouz,,F,BC,Juniors,Raw,76.28,84,100,110,-120,110,67.5,-75,77.5,77.5,125,135,142.5,142.5,330,SBD
2,Sophia Paridaen Van Veen,,F,BC,Juniors,Raw,78.99,84,-85,-85,85,85,65,67.5,-75,67.5,-115,115,137.5,137.5,290,SBD
1,Randi Potter,,F,BC,Open,Raw,45.62,47,100,-110,110,110,45,-52.5,-55,45,105,-117.5,-127.5,105,260,SBD
1,Nicole Luz,,F,BC,Open,Raw,51.16,52,80,82.5,90,90,45,-47.5,47.5,47.5,125,132.5,-137.5,132.5,270,SBD
1,Denise Busayong,,F,BC,Open,Raw,56.48,57,-110,110,-115,110,60,65,72.5,72.5,150,160,-167.5,160,342.5,SBD
2,Frazee Do,,F,BC,Open,Raw,56.43,57,-105,-105,105,105,50,-55,55,55,120,130,-132.5,130,290,SBD
1,Lucy Si Rui Xie,,F,BC,Open,Raw,60.75,63,112.5,120,125,125,65,-70,-70,65,137.5,145,152.5,152.5,342.5,SBD
2,Pham Diana,,F,BC,Open,Raw,60.44,63,95,102.5,110,110,65,67.5,-72.5,67.5,122.5,132.5,142.5,142.5,320,SBD
3,Kimberly Vernon Jarvis,,F,BC,Open,Raw,62.47,63,75,80,85,85,47.5,-52.5,-55,47.5,97.5,105,110,110,242.5,SBD
1,Haley Thomas,,F,BC,Open,Raw,66.37,69,100,105,110,110,-60,60,-65,60,135,145,-152.5,145,315,SBD
2,Tess Despres,,F,BC,Open,Raw,67.05,69,97.5,-110,110,110,50,55,-62.5,55,97.5,110,122.5,122.5,287.5,SBD
1,Madison Arnold,,F,BC,Open,Raw,72.77,76,147.5,155,160,160,85,87.5,-90,87.5,192.5,195,200,200,447.5,SBD
2,Emily Wiggins,,F,BC,Open,Raw,70.69,76,137.5,145,-152.5,145,102.5,107.5,110,110,165,175,187.5,187.5,442.5,SBD
3,Melanie Ong,,F,BC,Open,Raw,75.4,76,130,137.5,142.5,142.5,67.5,72.5,-75,72.5,130,137.5,142.5,142.5,357.5,SBD
1,Ramonjot Kaur Ghuman,,F,BC,Open,Raw,89.01,84+,110,115,120,120,70,75,87.5,87.5,157.5,167.5,177.5,177.5,385,SBD
1,Theresa Kwan,,F,BC,Masters 1,Raw,55.52,57,85,-90,90,90,55,57.5,-60,57.5,-115,115,117.5,117.5,265,SBD
2,Samantha Reid,,F,BC,Masters 1,Raw,52.27,57,42.5,45,-55,45,35,40,-42.5,40,80,85,90,90,175,SBD
1,Rebecca Saundry,,F,BC,Masters 1,Raw,73.63,76,65,67.5,-82.5,67.5,47.5,52.5,57.5,57.5,85,97.5,105,105,230,SBD
1,Maria Preovolos,,F,BC,Masters 1,Raw,77.19,84,42.5,45,55,55,32.5,37.5,-40,37.5,82.5,87.5,100,100,192.5,SBD
1,Athena Wallinder,,F,BC,Masters 2,Raw,99.17,84+,-25,-30,30,30,25,30,32.5,32.5,65,75,-87.5,75,137.5,SBD
1,Keven Truong,,M,BC,Juniors,Raw,70.42,74,220,230,235,235,115,117.5,120,120,230,240,-245,240,595,SBD
2,Brendon Huynh,,M,BC,Juniors,Raw,71.54,74,165,-175,175,175,87.5,92.5,95,95,165,180,-185,180,450,SBD
1,Danny L Wei,,M,BC,Juniors,Raw,82.73,83,180,195,205,205,130,137.5,145,145,220,235,-245,235,585,SBD
2,James Owen,,M,BC,Juniors,Raw,79.91,83,175,185,192.5,192.5,135,145,-152.5,145,210,220,230,230,567.5,SBD
3,Jeffrey Choi,,M,BC,Juniors,Raw,78.87,83,175,185,-192.5,185,-127.5,132.5,140,140,205,215,227.5,227.5,552.5,SBD
1,Karlmyk Crisostomo,,M,BC,Juniors,Raw,89.84,93,200,215,227.5,227.5,130,137.5,142.5,142.5,215,230,250,250,620,SBD
2,Allan Ji,,M,BC,Juniors,Raw,91.56,93,170,172.5,192.5,192.5,87.5,100,-107.5,100,195,215,225,225,517.5,SBD
3,Zu Ying Yu,,M,BC,Juniors,Raw,89.11,93,160,170,180,180,120,125,130,130,200,-210,-210,200,510,SBD
1,Chia Jin Liu,,M,BC,Open,Raw,65.42,66,160,170,-175,170,115,117.5,120,120,165,180,192.5,192.5,482.5,SBD
2,Mervin Truong,,M,BC,Open,Raw,65.32,66,-140,140,145,145,102.5,-110,-117.5,102.5,160,165,175,175,422.5,SBD
1,Nathan Paul Lee,,M,BC,Open,Raw,71.96,74,167.5,177.5,180,180,105,-115,115,115,235,252.5,-262.5,252.5,547.5,SBD
1,Riley Garrett,,M,BC,Open,Raw,80.1,83,220,232.5,-242.5,232.5,-145,-145,145,145,242.5,255,-260,255,632.5,SBD
2,Matteo Marra,,M,BC,Open,Raw,81.62,83,202.5,212.5,-215,212.5,120,125,127.5,127.5,215,227.5,-230,227.5,567.5,SBD
3,Kevin Van Nguyen,,M,BC,Open,Raw,82.24,83,200,210,-215,210,-100,110,-115,110,205,225,-240,225,545,SBD
4,Adam Chu,,M,BC,Open,Raw,78.54,83,-165,165,170,170,122.5,127.5,135,135,190,-205,205,205,510,SBD
5,Evan Wirth,,M,BC,Open,Raw,82.55,83,152.5,160,170,170,97.5,-105,-105,97.5,170,180,190,190,457.5,SBD
1,Alexander Wei Rui Ang,,M,BC,Open,Raw,91.91,93,252.5,262.5,272.5,272.5,157.5,165,-170,165,310,335,-356,335,772.5,SBD
2,Zachary Reimer,,M,BC,Open,Raw,92.73,93,267.5,280,287.5,287.5,155,162.5,-167.5,162.5,287.5,-302.5,-307.5,287.5,737.5,SBD
3,Kenneth Mann,,M,BC,Open,Raw,92.3,93,217.5,230,-232.5,230,145,152.5,157.5,157.5,230,240,255,255,642.5,SBD
4,Cory Smith,,M,BC,Open,Raw,90.74,93,192.5,207.5,217.5,217.5,112.5,120,125,125,242.5,255,-262.5,255,597.5,SBD
5,Philip Garabandic,,M,BC,Open,Raw,92.73,93,-177.5,-195,195,195,147.5,152.5,-155,152.5,200,220,227.5,227.5,575,SBD
6,Gregory Goana,,M,BC,Open,Raw,91.44,93,177.5,192.5,202.5,202.5,127.5,135,137.5,137.5,-210,220,230,230,570,SBD
7,Alex Pangburn,,M,BC,Open,Raw,91.7,93,195,-207.5,-207.5,195,-125,125,135,135,207.5,220,-232.5,220,550,SBD
8,Michael Richards #1,,M,BC,Open,Raw,85.59,93,175,185,192.5,192.5,100,107.5,112.5,112.5,200,210,217.5,217.5,522.5,SBD
1,Jordan Boultbee,,M,BC,Open,Raw,101.05,105,200,220,-240,220,135,145,-150,145,220,232.5,247.5,247.5,612.5,SBD
2,Patrick Chua,,M,BC,Open,Raw,98.51,105,225,242.5,-250,242.5,130,-137.5,137.5,137.5,215,230,-242.5,230,610,SBD
1,Christopher Soo,,M,BC,Open,Raw,118.37,120,270,282.5,-292.5,282.5,170,177.5,-185,177.5,-300,300,320,320,780,SBD
1,Jordan Phelps,,M,BC,Open,Raw,192.79,120+,235,250,265,265,145,165,170,170,190,215,240,240,675,SBD
2,Jeremy Phelps,,M,BC,Open,Raw,197.86,120+,230,250,-260,250,145,160,175,175,190,215,240,240,665,SBD
DQ,Tim Welton,,M,BC,Masters 3,Raw,92.89,93,-25,-25,25,25,-125,-125,-125,,-65,,,,,SBD
1,John Quinton,,M,BC,Masters 3,Raw,136.24,120+,165,-175,175,175,135,-137.5,-137.5,135,165,175,185.5,185.5,495.5,SBD
DQ,Graeme Gerlach,,M,BC,Open,Single-ply,91.77,93,-247.5,-247.5,-247.5,,155,162.5,167.5,167.5,205,215,225,225,,SBD
1,Una Gair,,F,BC,Open,Raw,66.4,69,,,,,-77.5,77.5,-85,77.5,,,,,77.5,B
1,Mary-Ann Middleton,,F,BC,Masters 1,Raw,94.46,84+,,,,,60,62.5,65,65,,,,,65,B
1,Markus Skjeie,,M,BC,Sub-Juniors,Raw,63.74,66,,,,,60,70,72.5,72.5,,,,,72.5,B
1,Vic Wang,,M,BC,Sub-Juniors,Raw,82.96,83,,,,,-80,85,90,90,,,,,90,B
1,Walter Zheng,,M,BC,Sub-Juniors,Raw,108.07,120,,,,,102.5,112.5,-125,112.5,,,,,112.5,B
1,William Zheng,,M,BC,Sub-Juniors,Raw,145.65,120+,,,,,125,-140,150,150,,,,,150,B
1,Anson Chew,,M,BC,Juniors,Raw,52.58,53,,,,,-120,120,125,125,,,,,125,B
1,Pete Williams,,M,BC,Open,Raw,65.03,66,,,,,110,115,120,120,,,,,120,B
2,Daniel Park #3,,M,BC,Open,Raw,64.05,66,,,,,95,100,105,105,,,,,105,B
1,Sumeet Sharma,,M,BC,Open,Raw,95.79,105,,,,,-150,150,-160,150,,,,,150,B
1,Joseph Lu #2,,M,BC,Masters 2,Raw,65.75,66,,,,,90,92.5,95,95,,,,,95,B
1,Ramis Be,,M,BC,Masters 2,Raw,72.77,74,,,,,125,-132.5,132.5,132.5,,,,,132.5,B
1,Angelo Anastasio,,M,BC,Masters 3,Raw,72.9,74,,,,,92.5,100,102.5,102.5,,,,,102.5,B
1,Marc Vézina,,M,BC,Masters 3,Raw,80.87,83,,,,,80,95,-110.5,95,,,,,95,B
1,John Quinton,,M,BC,Masters 3,Raw,136.74,120+,,,,,130,-135,-135,130,,,,,130,B
